<svg xmlns="http://www.w3.org/2000/svg" width="14" height="14" fill="none" viewBox="0 0 14 14">
    <path fill="#e4e4e4" fill-rule="evenodd" d="M13.707 1.707c.39-.39.39-1.024 0-1.414-.39-.39-1.024-.39-1.414 0L7 5.586 1.707.293c-.39-.39-1.024-.39-1.414 0-.39.39-.39 1.024 0 1.414L5.586 7 .293 12.293c-.39.39-.39 1.024 0 1.414.39.39 1.024.39 1.414 0L7 8.414l5.293 5.293c.39.39 1.024.39 1.414 0 .39-.39.39-1.024 0-1.414L8.414 7l5.293-5.293z" clip-rule="evenodd"/>
</svg>
