<svg xmlns="http://www.w3.org/2000/svg" width="10" height="6" fill="none" viewBox="0 0 10 6">
    <path fill="#FF3401" d="M9.734 1.553c.17-.17.266-.402.266-.643 0-.242-.096-.473-.266-.644C9.563.096 9.332 0 9.09 0c-.24 0-.472.096-.643.266L5.415 3.3 2.383.266C2.213.096 1.98 0 1.74 0c-.242 0-.473.096-.644.266C.926.437.83.668.83.91c0 .24.096.472.266.643L4.77 5.226c.085.085.185.152.296.197.11.046.228.07.348.07.12 0 .238-.024.348-.07.11-.045.21-.112.295-.197l3.678-3.673z"/>
</svg>
