<svg xmlns="http://www.w3.org/2000/svg" width="13" height="13" fill="none" viewBox="0 0 13 13">
    <path fill="#fff" d="M2.84 12.635H.71c-.188 0-.369-.075-.502-.208S0 12.114 0 11.925v-2.13c0-.093.02-.186.056-.273.037-.086.09-.165.157-.23L9.451.206C9.584.074 9.764 0 9.95 0c.188 0 .368.074.5.206l2.024 2.024c.132.133.206.313.206.5 0 .188-.074.368-.206.5l-9.131 9.196c-.066.066-.145.119-.231.155-.087.036-.18.054-.273.054zm-1.42-1.42h1.125l8.421-8.481L9.944 1.71 1.42 10.094v1.121z"/>
</svg>
