<svg xmlns="http://www.w3.org/2000/svg" width="21" height="16" fill="none" viewBox="0 0 21 16">
    <path fill="#FF6601" fill-rule="evenodd" d="M0 1c0-.552.448-1 1-1h19c.552 0 1 .448 1 1s-.448 1-1 1H1c-.552 0-1-.448-1-1zm5 7c0-.552.448-1 1-1h14c.552 0 1 .448 1 1s-.448 1-1 1H6c-.552 0-1-.448-1-1zm-4 6c-.552 0-1 .448-1 1s.448 1 1 1h19c.552 0 1-.448 1-1s-.448-1-1-1H1z" clip-rule="evenodd"/>
</svg>
